WHO WERE THE SHUDRAS ? 


APPENDICES 


APPENDICES 

1. APPENDIX I - References to the word 'Arva' in the Rig Veda 

2. APPENDIX II - References to the word 'Arva in the Rig Veda, Yaiur Veda and 
Atharva Veda 


APPENDIX I 



APPENDIX II 

References to the word "Ary a" (I) In the Rig Veda 




(II) In the Yajur Veda 


IV 

H M 

V 

H M 

VI 

H M 

XVIII 
H M 

XIX 
H M 

XX 

H M 

20 4 

20 8 

11 3 

63 4 

1 21 

32 8 

62 1 

18 5 

85 4 


(III) Atharva Veda 


IV 

XX 

XXII 

H 

M 

H 

M 

H 

M 

32 

1 

11 

9 

63 

4 



17 

4 





18 

5 





36 

10 





85 

4 





89 

1 





95 

4 




Contents 


Continued... 


