WHAT CONGRESS AND GANDHI HAVE DONE TO 

THE UNTOUCHABLES 


Appendices 


continued... 


APPENDIX XV (8) ASSAM 


Name of 
Constituency 

Contested 

or 

Uncontested 

Party 
Ticket of 
Successful 
Candidate 

Distribution of Votes 
Polled by Successful 
Candidate 

Votes Polled 
by 

Unsuccessful 

Candidates 

Total 

Scheduled 

Caste 

Votes 

Polled 




Scheduled- 

Caste 

Votes 

Hindu 

Votes 

Total 



(1) 

(2) 

( 3 ) 

( 4 ) 

( 5 ) 

(6) 

(V) 

(8) 

Kamrup 

Sadr 

(South), 

General 

Contested 

Congress 

Nil 

4,832 

4,832 

3,665 

1,841 

Nowgong 
(North Eart), 
General 

Contested 

Non- 

Congress 

1,596 

Nil 

1,596 

3,045 

2,226 

Jorhat 

(North), 

General 

Contested 

Congress 

457 

495 

952 

371 

828 

Sunamganj, 

General 

Unopposed 

Congress 

— 

— 

— 

— 

— 

Habiganj 

(North), 

General 

Contested 

Congress 

4,863 

Nil 

4,863 

4,397 

10,356 

Karimganj 

(East), 

General 

Contested 

Non- 

Congress 

3,252 

Nil 

3,252 

1,119 

10,252 

Silchar, 

General 

Contested 

Non- 

Congress 

2,108 

Nil 

2,108 

2,197 

2,254 



Total of Scheduled-Caste Votes 

5,320 



Total 

27,757 

secured by Congress Candidates 







Total of Scheduled-Caste Votes 27757 


Total of Scheduled-Caste Votes secured by Congress Candidates 5320 
Total of Scheduled-Caste Votes secured by non-Congress Candidates 22437 


Contents 


Continued... 



